{
  "$schema": "https://docs.renovatebot.com/renovate-schema.json",
  "packageRules": [
    {
      "groupName": "terraform",
      "packagePatterns": [
        "^aws$",
        "^github$",
        "^kubernetes$",
        "^archive$",
        "^template$",
        "^auth0/.*$",
        "^terraform-linters/.*$"
      ]
    }
  ]
}
